{
  "images" : [
    {
      "filename" : "icons8-delete-100.png",
      "idiom" : "universal",
      "scale" : "1x"
    },
    {
      "filename" : "icons8-delete-101.png",
      "idiom" : "universal",
      "scale" : "2x"
    },
    {
      "filename" : "icons8-delete-102.png",
      "idiom" : "universal",
      "scale" : "3x"
    }
  ],
  "info" : {
    "author" : "xcode",
    "version" : 1
  }
}
